…
release_date

Temporal data is crucial to see the trends of Horror movies over time. In the first rows of the dataset, the format seems to be %d-%b-%y so lubridate::dmy() should be appropriate to parse release dates.

  horror_movies %>%
  transmute(release_date,
            release_date_asDate = dmy(release_date))

## # A tibble: 3,328 x 2
##    release_date release_date_asDate
##    <chr>        <date>             
##  1 26-Oct-12    2012-10-26         
##  2 13-Jan-17    2017-01-13         
##  3 21-Oct-17    2017-10-21         
##  4 23-Apr-13    2013-04-23         
##  5 10-Apr-15    2015-04-10         
##  6 2017         NA                 
##  7 3-Jun-14     2014-06-03         
##  8 25-Apr-15    2015-04-25         
##  9 28-May-17    2017-05-28         
## 10 7-Oct-16     2016-10-07         
## # … with 3,318 more rows
…
release_country

How many different countries are present in the dataset ?

n_distinct(horror_movies$release_country)

## [1] 72

What are they ?

horror_movies %>%
  distinct(release_country) %>%
  arrange(release_country)

## # A tibble: 72 x 1
##    release_country
##    <chr>          
##  1 Argentina      
##  2 Australia      
##  3 Austria        
##  4 Bahrain        
##  5 Belarus        
##  6 Belgium        
##  7 Bolivia        
##  8 Brazil         
##  9 Bulgaria       
## 10 Cambodia       
## # … with 62 more rows
…
